 {
	"type": "minecraft:crafting_shaped",
	"pattern": [
	"S S",
	"ACA",
	"L L"
	],
	"key": {
		"S":{
			"item": "mtmechs:ma_stack_item"
		},
		"A":{
			"item": "mtmechs:ma_arm_item"
		},
		"L":{
			"item": "mtmechs:ma_leg_item"
		},
		"C":{
			"item": "mtmechs:ma_chassis_item"
		}
		
	},
	"result": {
		"item": "mtmechs:ma_whole_item",
		"count": 1
	}
}
